<svg xmlns="http://www.w3.org/2000/svg" width="24" height="24" viewBox="0 0 24 24">
    <g fill="none" fill-rule="nonzero">
        <path fill="#03D188" d="M22.312 1.641a5.603 5.603 0 0 1 0 7.924l-4.617 4.618a5.579 5.579 0 0 1-2.131 1.334 5.629 5.629 0 0 1-3.662 0 5.578 5.578 0 0 1-2.131-1.334 5.585 5.585 0 0 1-1.335-2.131l.098-.099 1.732-1.767L12 11.953c.955.956 2.51.956 3.466 0l.098-.098 4.52-4.52a2.454 2.454 0 0 0 0-3.465 2.454 2.454 0 0 0-3.466 0l-4.52 4.52-1.83.744-1.832-.745a5.582 5.582 0 0 1 1.335-2.13l4.617-4.618a5.603 5.603 0 0 1 7.924 0z"/>
        <path fill="#03BC7B" d="M12.098 8.39a5.582 5.582 0 0 1 2.13 1.334 5.578 5.578 0 0 1 1.336 2.131l-.098.098a2.453 2.453 0 0 1-3.466 0 2.454 2.454 0 0 0-3.466 0l-.098.098-4.52 4.52a2.453 2.453 0 0 0 0 3.465c.956.956 2.51.956 3.467 0l4.519-4.519a5.629 5.629 0 0 0 3.662 0 5.58 5.58 0 0 1-1.335 2.131l-4.617 4.618a5.604 5.604 0 0 1-7.924-7.925l4.617-4.617A5.58 5.58 0 0 1 8.436 8.39a5.63 5.63 0 0 1 3.662 0z"/>
    </g>
</svg>
